Index,coefficient
page_cancel,68.26038616
max_session,40.98827167
page_about,30.93301222
page_save_settings,30.27758574
page_submit_downgrade,28.13811192
page_settings,23.10023973
avg_length,22.08648553
page_help,13.47345128
page_add_friend,13.08154944
page_upgrade,10.66515164
page_thumbs_up,8.940506198
page_submit_upgrade,7.963678829
gender_M,6.072263584
page_thumbs_down,5.691611633
page_nextsong,1.144264413
count_user_logs,1.016633031
page_logout,-0.143784995
gender_F,-6.072263584
page_home,-7.344438165
page_error,-7.455142921
page_add_to_playlist,-20.84964648
page_roll_advert,-40.36966897
